﻿{
  "dependencies": {
    "Microsoft.ApplicationInsights": "2.0.1",
    "Microsoft.ApplicationInsights.PersistenceChannel": "1.2.3",
    "Microsoft.ApplicationInsights.WindowsApps": "1.1.1",
    "Microsoft.NETCore.UniversalWindowsPlatform": "5.1.0",
    "MvvmLight": "5.3.0",
    "ReactiveProperty": "2.7.3",
    "Rx-Main": "2.2.5",
    "Troschuetz.Random": "4.0.4"
  },
  "frameworks": {
    "uap10.0": {}
  },
  "runtimes": {
    "win10-arm": {},
    "win10-arm-aot": {},
    "win10-x86": {},
    "win10-x86-aot": {},
    "win10-x64": {},
    "win10-x64-aot": {}
  }
}